
________                          __      __      __.__  __  .__       _____________________ ____________________
\_____  \  __ __   ____   _______/  |_   /  \    /  \__|/  |_|  |__    \______   \_   _____//   _____/\__    ___/
 /  / \  \|  |  \_/ __ \ /  ___/\   __\  \   \/\/   /  \   __\  |  \    |       _/|    __)_ \_____  \   |    |   
/   \_/.  \  |  /\  ___/ \___ \  |  |     \        /|  ||  | |   Y  \   |    |   \|        \/        \  |    |   
\_____\ \_/____/  \___  >____  > |__|      \__/\  / |__||__| |___|  /   |____|_  /_______  /_______  /  |____|   
       \__>           \/     \/                 \/                \/           \/        \/        \/            
